<?xml version="1.0"?>
<!DOCTYPE svg PUBLIC '-//W3C//DTD SVG 1.0//EN'
          'http://www.w3.org/TR/2001/REC-SVG-20010904/DTD/svg10.dtd'>
<svg xmlns:xlink="http://www.w3.org/1999/xlink" style="fill-opacity:1; color-rendering:auto; color-interpolation:auto; text-rendering:auto; stroke:black; stroke-linecap:square; stroke-miterlimit:10; shape-rendering:auto; stroke-opacity:1; fill:black; stroke-dasharray:none; font-weight:normal; stroke-width:1; font-family:'Dialog'; font-style:normal; stroke-linejoin:miter; font-size:12px; stroke-dashoffset:0; image-rendering:auto;" width="570" height="422" xmlns="http://www.w3.org/2000/svg"
><!--Generated by the Batik Graphics2D SVG Generator--><defs id="genericDefs"
  /><g
  ><defs id="defs1"
    ><clipPath clipPathUnits="userSpaceOnUse" id="clipPath1"
      ><path d="M0 0 L570 0 L570 422 L0 422 L0 0 Z"
      /></clipPath
      ><font horiz-adv-x="60.009766" id="font1"
      ><font-face ascent="92.822266" descent="23.583984" units-per-em="100" style="font-style:normal; font-family:SansSerif; font-weight:normal;"
        /><missing-glyph horiz-adv-x="60.009766" d="M4.9844 -17.6719 L4.9844 70.5156 L54.9844 70.5156 L54.9844 -17.6719 L4.9844 -17.6719 ZM10.5938 -12.1094 L49.4219 -12.1094 L49.4219 64.8906 L10.5938 64.8906 L10.5938 -12.1094 Z"
        /><glyph unicode="0" horiz-adv-x="63.623047" d="M31.7812 66.4062 Q24.1719 66.4062 20.3359 58.9141 Q16.5 51.4219 16.5 36.375 Q16.5 21.3906 20.3359 13.8906 Q24.1719 6.3906 31.7812 6.3906 Q39.4531 6.3906 43.2891 13.8906 Q47.125 21.3906 47.125 36.375 Q47.125 51.4219 43.2891 58.9141 Q39.4531 66.4062 31.7812 66.4062 ZM31.7812 74.2188 Q44.0469 74.2188 50.5156 64.5234 Q56.9844 54.8281 56.9844 36.375 Q56.9844 17.9688 50.5156 8.2734 Q44.0469 -1.4219 31.7812 -1.4219 Q19.5312 -1.4219 13.0625 8.2734 Q6.5938 17.9688 6.5938 36.375 Q6.5938 54.8281 13.0625 64.5234 Q19.5312 74.2188 31.7812 74.2188 Z"
        /><glyph unicode="1" horiz-adv-x="63.623047" d="M12.4062 8.2969 L28.5156 8.2969 L28.5156 63.9219 L10.9844 60.4062 L10.9844 69.3906 L28.4219 72.9062 L38.2812 72.9062 L38.2812 8.2969 L54.3906 8.2969 L54.3906 0 L12.4062 0 L12.4062 8.2969 Z"
        /><glyph unicode="2" horiz-adv-x="63.623047" d="M19.1875 8.2969 L53.6094 8.2969 L53.6094 0 L7.3281 0 L7.3281 8.2969 Q12.9375 14.1094 22.6328 23.8984 Q32.3281 33.6875 34.8125 36.5312 Q39.5469 41.8438 41.4297 45.5312 Q43.3125 49.2188 43.3125 52.7812 Q43.3125 58.5938 39.2344 62.2578 Q35.1562 65.9219 28.6094 65.9219 Q23.9688 65.9219 18.8203 64.3125 Q13.6719 62.7031 7.8125 59.4219 L7.8125 69.3906 Q13.7656 71.7812 18.9453 73 Q24.125 74.2188 28.4219 74.2188 Q39.75 74.2188 46.4844 68.5547 Q53.2188 62.8906 53.2188 53.4219 Q53.2188 48.9219 51.5391 44.8984 Q49.8594 40.875 45.4062 35.4062 Q44.1875 33.9844 37.6484 27.2188 Q31.1094 20.4531 19.1875 8.2969 Z"
        /><glyph unicode="3" horiz-adv-x="63.623047" d="M40.5781 39.3125 Q47.6562 37.7969 51.6328 33.0078 Q55.6094 28.2188 55.6094 21.1875 Q55.6094 10.4062 48.1875 4.4922 Q40.7656 -1.4219 27.0938 -1.4219 Q22.5156 -1.4219 17.6562 -0.5156 Q12.7969 0.3906 7.625 2.2031 L7.625 11.7188 Q11.7188 9.3281 16.6016 8.1094 Q21.4844 6.8906 26.8125 6.8906 Q36.0781 6.8906 40.9375 10.5469 Q45.7969 14.2031 45.7969 21.1875 Q45.7969 27.6406 41.2812 31.2734 Q36.7656 34.9062 28.7188 34.9062 L20.2188 34.9062 L20.2188 43.0156 L29.1094 43.0156 Q36.375 43.0156 40.2344 45.9219 Q44.0938 48.8281 44.0938 54.2969 Q44.0938 59.9062 40.1172 62.9141 Q36.1406 65.9219 28.7188 65.9219 Q24.6562 65.9219 20.0156 65.0391 Q15.375 64.1562 9.8125 62.3125 L9.8125 71.0938 Q15.4375 72.6562 20.3438 73.4375 Q25.25 74.2188 29.5938 74.2188 Q40.8281 74.2188 47.3672 69.1172 Q53.9062 64.0156 53.9062 55.3281 Q53.9062 49.2656 50.4375 45.0938 Q46.9688 40.9219 40.5781 39.3125 Z"
        /><glyph unicode="4" horiz-adv-x="63.623047" d="M37.7969 64.3125 L12.8906 25.3906 L37.7969 25.3906 L37.7969 64.3125 ZM35.2031 72.9062 L47.6094 72.9062 L47.6094 25.3906 L58.0156 25.3906 L58.0156 17.1875 L47.6094 17.1875 L47.6094 0 L37.7969 0 L37.7969 17.1875 L4.8906 17.1875 L4.8906 26.7031 L35.2031 72.9062 Z"
        /><glyph unicode="5" horiz-adv-x="63.623047" d="M10.7969 72.9062 L49.5156 72.9062 L49.5156 64.5938 L19.8281 64.5938 L19.8281 46.7344 Q21.9688 47.4688 24.1172 47.8281 Q26.2656 48.1875 28.4219 48.1875 Q40.625 48.1875 47.7578 41.5 Q54.8906 34.8125 54.8906 23.3906 Q54.8906 11.625 47.5625 5.1016 Q40.2344 -1.4219 26.9062 -1.4219 Q22.3125 -1.4219 17.5547 -0.6406 Q12.7969 0.1406 7.7188 1.7031 L7.7188 11.625 Q12.1094 9.2344 16.7969 8.0625 Q21.4844 6.8906 26.7031 6.8906 Q35.1562 6.8906 40.0859 11.3281 Q45.0156 15.7656 45.0156 23.3906 Q45.0156 31 40.0859 35.4453 Q35.1562 39.8906 26.7031 39.8906 Q22.75 39.8906 18.8203 39.0156 Q14.8906 38.1406 10.7969 36.2812 L10.7969 72.9062 Z"
        /><glyph unicode="6" horiz-adv-x="63.623047" d="M33.0156 40.375 Q26.375 40.375 22.4922 35.8359 Q18.6094 31.2969 18.6094 23.3906 Q18.6094 15.5312 22.4922 10.9609 Q26.375 6.3906 33.0156 6.3906 Q39.6562 6.3906 43.5312 10.9609 Q47.4062 15.5312 47.4062 23.3906 Q47.4062 31.2969 43.5312 35.8359 Q39.6562 40.375 33.0156 40.375 ZM52.5938 71.2969 L52.5938 62.3125 Q48.875 64.0625 45.0938 64.9922 Q41.3125 65.9219 37.5938 65.9219 Q27.8281 65.9219 22.6797 59.3281 Q17.5312 52.7344 16.7969 39.4062 Q19.6719 43.6562 24.0234 45.9219 Q28.375 48.1875 33.5938 48.1875 Q44.5781 48.1875 50.9531 41.5234 Q57.3281 34.8594 57.3281 23.3906 Q57.3281 12.1562 50.6875 5.3672 Q44.0469 -1.4219 33.0156 -1.4219 Q20.3594 -1.4219 13.6719 8.2734 Q6.9844 17.9688 6.9844 36.375 Q6.9844 53.6562 15.1875 63.9375 Q23.3906 74.2188 37.2031 74.2188 Q40.9219 74.2188 44.7031 73.4844 Q48.4844 72.75 52.5938 71.2969 Z"
        /><glyph unicode="7" horiz-adv-x="63.623047" d="M8.2031 72.9062 L55.0781 72.9062 L55.0781 68.7031 L28.6094 0 L18.3125 0 L43.2188 64.5938 L8.2031 64.5938 L8.2031 72.9062 Z"
        /><glyph unicode="-" horiz-adv-x="36.083984" d="M4.8906 31.3906 L31.2031 31.3906 L31.2031 23.3906 L4.8906 23.3906 L4.8906 31.3906 Z"
      /></font
    ></defs
    ><g style="fill:white; stroke:white;"
    ><rect x="0" y="0" width="570" style="clip-path:url(#clipPath1); stroke:none;" height="422"
    /></g
    ><g style="fill:white; text-rendering:optimizeSpeed; color-rendering:optimizeSpeed; image-rendering:optimizeSpeed; shape-rendering:crispEdges; stroke:white; color-interpolation:sRGB;"
    ><rect x="0" width="570" height="422" y="0" style="stroke:none;"
      /><path style="stroke:none;" d="M74 376 L516 376 L516 32 L74 32 Z"
    /></g
    ><g style="fill:rgb(38,38,38); text-rendering:geometricPrecision; image-rendering:optimizeQuality; color-rendering:optimizeQuality; stroke-linejoin:round; stroke:rgb(38,38,38); color-interpolation:linearRGB; stroke-width:0.6667;"
    ><line y2="376" style="fill:none;" x1="74" x2="516" y1="376"
      /><line y2="371.58" style="fill:none;" x1="74" x2="74" y1="376"
      /><line y2="371.58" style="fill:none;" x1="137.1429" x2="137.1429" y1="376"
      /><line y2="371.58" style="fill:none;" x1="200.2857" x2="200.2857" y1="376"
      /><line y2="371.58" style="fill:none;" x1="263.4286" x2="263.4286" y1="376"
      /><line y2="371.58" style="fill:none;" x1="326.5714" x2="326.5714" y1="376"
      /><line y2="371.58" style="fill:none;" x1="389.7143" x2="389.7143" y1="376"
      /><line y2="371.58" style="fill:none;" x1="452.8571" x2="452.8571" y1="376"
      /><line y2="371.58" style="fill:none;" x1="516" x2="516" y1="376"
    /></g
    ><g transform="translate(74,381.3333)" style="font-size:13.3333px; fill:rgb(38,38,38); text-rendering:geometricPrecision; image-rendering:optimizeQuality; color-rendering:optimizeQuality; font-family:'SansSerif'; stroke:rgb(38,38,38); color-interpolation:linearRGB;"
    ><text x="-4.5" xml:space="preserve" y="13" style="stroke:none;"
      >0</text
    ></g
    ><g transform="translate(137.1429,381.3333)" style="font-size:13.3333px; fill:rgb(38,38,38); text-rendering:geometricPrecision; image-rendering:optimizeQuality; color-rendering:optimizeQuality; font-family:'SansSerif'; stroke:rgb(38,38,38); color-interpolation:linearRGB;"
    ><text x="-8.5" xml:space="preserve" y="13" style="stroke:none;"
      >10</text
    ></g
    ><g transform="translate(200.2857,381.3333)" style="font-size:13.3333px; fill:rgb(38,38,38); text-rendering:geometricPrecision; image-rendering:optimizeQuality; color-rendering:optimizeQuality; font-family:'SansSerif'; stroke:rgb(38,38,38); color-interpolation:linearRGB;"
    ><text x="-8.5" xml:space="preserve" y="13" style="stroke:none;"
      >20</text
    ></g
    ><g transform="translate(263.4286,381.3333)" style="font-size:13.3333px; fill:rgb(38,38,38); text-rendering:geometricPrecision; image-rendering:optimizeQuality; color-rendering:optimizeQuality; font-family:'SansSerif'; stroke:rgb(38,38,38); color-interpolation:linearRGB;"
    ><text x="-8.5" xml:space="preserve" y="13" style="stroke:none;"
      >30</text
    ></g
    ><g transform="translate(326.5714,381.3333)" style="font-size:13.3333px; fill:rgb(38,38,38); text-rendering:geometricPrecision; image-rendering:optimizeQuality; color-rendering:optimizeQuality; font-family:'SansSerif'; stroke:rgb(38,38,38); color-interpolation:linearRGB;"
    ><text x="-8.5" xml:space="preserve" y="13" style="stroke:none;"
      >40</text
    ></g
    ><g transform="translate(389.7143,381.3333)" style="font-size:13.3333px; fill:rgb(38,38,38); text-rendering:geometricPrecision; image-rendering:optimizeQuality; color-rendering:optimizeQuality; font-family:'SansSerif'; stroke:rgb(38,38,38); color-interpolation:linearRGB;"
    ><text x="-8.5" xml:space="preserve" y="13" style="stroke:none;"
      >50</text
    ></g
    ><g transform="translate(452.8571,381.3333)" style="font-size:13.3333px; fill:rgb(38,38,38); text-rendering:geometricPrecision; image-rendering:optimizeQuality; color-rendering:optimizeQuality; font-family:'SansSerif'; stroke:rgb(38,38,38); color-interpolation:linearRGB;"
    ><text x="-8.5" xml:space="preserve" y="13" style="stroke:none;"
      >60</text
    ></g
    ><g transform="translate(516,381.3333)" style="font-size:13.3333px; fill:rgb(38,38,38); text-rendering:geometricPrecision; image-rendering:optimizeQuality; color-rendering:optimizeQuality; font-family:'SansSerif'; stroke:rgb(38,38,38); color-interpolation:linearRGB;"
    ><text x="-8.5" xml:space="preserve" y="13" style="stroke:none;"
      >70</text
    ></g
    ><g style="fill:rgb(38,38,38); text-rendering:geometricPrecision; image-rendering:optimizeQuality; color-rendering:optimizeQuality; stroke-linejoin:round; stroke:rgb(38,38,38); color-interpolation:linearRGB; stroke-width:0.6667;"
    ><line y2="32" style="fill:none;" x1="74" x2="74" y1="376"
      /><line y2="376" style="fill:none;" x1="74" x2="78.42" y1="376"
      /><line y2="333" style="fill:none;" x1="74" x2="78.42" y1="333"
      /><line y2="290" style="fill:none;" x1="74" x2="78.42" y1="290"
      /><line y2="247" style="fill:none;" x1="74" x2="78.42" y1="247"
      /><line y2="204" style="fill:none;" x1="74" x2="78.42" y1="204"
      /><line y2="161" style="fill:none;" x1="74" x2="78.42" y1="161"
      /><line y2="118" style="fill:none;" x1="74" x2="78.42" y1="118"
      /><line y2="75" style="fill:none;" x1="74" x2="78.42" y1="75"
      /><line y2="32" style="fill:none;" x1="74" x2="78.42" y1="32"
    /></g
    ><g transform="translate(68.6667,376)" style="font-size:13.3333px; fill:rgb(38,38,38); text-rendering:geometricPrecision; image-rendering:optimizeQuality; color-rendering:optimizeQuality; font-family:'SansSerif'; stroke:rgb(38,38,38); color-interpolation:linearRGB;"
    ><text x="-22" xml:space="preserve" y="4.5" style="stroke:none;"
      >-20</text
    ></g
    ><g transform="translate(68.6667,333)" style="font-size:13.3333px; fill:rgb(38,38,38); text-rendering:geometricPrecision; image-rendering:optimizeQuality; color-rendering:optimizeQuality; font-family:'SansSerif'; stroke:rgb(38,38,38); color-interpolation:linearRGB;"
    ><text x="-22" xml:space="preserve" y="4.5" style="stroke:none;"
      >-15</text
    ></g
    ><g transform="translate(68.6667,290)" style="font-size:13.3333px; fill:rgb(38,38,38); text-rendering:geometricPrecision; image-rendering:optimizeQuality; color-rendering:optimizeQuality; font-family:'SansSerif'; stroke:rgb(38,38,38); color-interpolation:linearRGB;"
    ><text x="-22" xml:space="preserve" y="4.5" style="stroke:none;"
      >-10</text
    ></g
    ><g transform="translate(68.6667,247)" style="font-size:13.3333px; fill:rgb(38,38,38); text-rendering:geometricPrecision; image-rendering:optimizeQuality; color-rendering:optimizeQuality; font-family:'SansSerif'; stroke:rgb(38,38,38); color-interpolation:linearRGB;"
    ><text x="-14" xml:space="preserve" y="4.5" style="stroke:none;"
      >-5</text
    ></g
    ><g transform="translate(68.6667,204)" style="font-size:13.3333px; fill:rgb(38,38,38); text-rendering:geometricPrecision; image-rendering:optimizeQuality; color-rendering:optimizeQuality; font-family:'SansSerif'; stroke:rgb(38,38,38); color-interpolation:linearRGB;"
    ><text x="-9" xml:space="preserve" y="4.5" style="stroke:none;"
      >0</text
    ></g
    ><g transform="translate(68.6667,161)" style="font-size:13.3333px; fill:rgb(38,38,38); text-rendering:geometricPrecision; image-rendering:optimizeQuality; color-rendering:optimizeQuality; font-family:'SansSerif'; stroke:rgb(38,38,38); color-interpolation:linearRGB;"
    ><text x="-9" xml:space="preserve" y="4.5" style="stroke:none;"
      >5</text
    ></g
    ><g transform="translate(68.6667,118)" style="font-size:13.3333px; fill:rgb(38,38,38); text-rendering:geometricPrecision; image-rendering:optimizeQuality; color-rendering:optimizeQuality; font-family:'SansSerif'; stroke:rgb(38,38,38); color-interpolation:linearRGB;"
    ><text x="-17" xml:space="preserve" y="4.5" style="stroke:none;"
      >10</text
    ></g
    ><g transform="translate(68.6667,75)" style="font-size:13.3333px; fill:rgb(38,38,38); text-rendering:geometricPrecision; image-rendering:optimizeQuality; color-rendering:optimizeQuality; font-family:'SansSerif'; stroke:rgb(38,38,38); color-interpolation:linearRGB;"
    ><text x="-17" xml:space="preserve" y="4.5" style="stroke:none;"
      >15</text
    ></g
    ><g transform="translate(68.6667,32)" style="font-size:13.3333px; fill:rgb(38,38,38); text-rendering:geometricPrecision; image-rendering:optimizeQuality; color-rendering:optimizeQuality; font-family:'SansSerif'; stroke:rgb(38,38,38); color-interpolation:linearRGB;"
    ><text x="-17" xml:space="preserve" y="4.5" style="stroke:none;"
      >20</text
    ></g
    ><g style="stroke-linecap:butt; fill:red; text-rendering:geometricPrecision; image-rendering:optimizeQuality; color-rendering:optimizeQuality; stroke-linejoin:round; stroke:red; color-interpolation:linearRGB; stroke-width:0.6667;"
    ><path d="M74 195.4 L74.6314 195.4 L75.2629 223.6756 L75.8943 361.6581 L76.5257 167.7097 L77.1571 32 L77.7886 32 L78.42 376 L79.0514 363.5226 L79.6829 253.6404 L80.3143 264.0779 L80.9457 310.8178 L81.5771 376 L82.2086 358.7572 L82.84 365.0644 L83.4714 343.9193 L84.1029 259.8995 L84.7343 266.4291 L85.3657 222.1706 L85.9971 252.8949 L86.6286 221.2686 L87.26 211.689 L87.8914 204.8027 L88.5229 176.1155 L89.1543 161.7357 L89.7857 162.5129 L90.4171 180.036 L91.0486 165.1418 L91.68 170.8052 L92.3114 158.627 L92.9429 166.8386 L93.5743 163.0126 L94.2057 175.1909 L94.8371 165.897 L95.4686 160.7071 L96.1 168.473 L96.7314 175.8297 L97.3629 175.9274 L97.9943 159.3763 L98.6257 180.3625 L99.2571 175.4446 L99.8886 193.5922 L100.52 175.3701 L101.1514 177.5331 L101.7829 175.1739 L102.4143 183.3045 L103.0457 175.2399 L103.6771 189.6696 L104.3086 174.9947 L104.94 190.5693 L105.5714 182.674 L106.2029 186.0006 L106.8343 184.4404 L107.4657 194.8949 L108.0971 180.4056 L108.7286 195.6663 L109.36 169.9838 L109.9914 184.5178 L110.6229 193.7651 L111.2543 181.3406 L111.8857 189.6231 L112.5171 182.7553 L113.1486 185.4487 L113.78 189.3813 L114.4114 188.0676 L115.0429 180.5515 L115.6743 186.8884 L116.3057 196.2971 L116.9371 188.0866 L117.5686 173.658 L118.2 202.8412 L118.8314 178.3729 L119.4629 195.6936 L120.0943 185.4804 L120.7257 167.4789 L121.3571 192.2808 L121.9886 200.8741 L122.62 163.4846 L123.2514 196.8748 L123.8829 183.0768 L124.5143 196.3997 L125.1457 171.8976 L125.7771 190.4462 L126.4086 209.6444 L127.04 176.8663 L127.6714 184.6091 L128.3029 179.8871 L128.9343 197.5432 L129.5657 169.0456 L130.1971 191.5461 L130.8286 191.364 L131.46 179.4948 L132.0914 190.3455 L132.7229 188.5655 L133.3543 187.1876 L133.9857 195.9805 L134.6171 171.1171 L135.2486 206.5469 L135.88 175.9238 L136.5114 188.5452 L137.1429 180.237 L137.7743 182.1962 L138.4057 182.3954 L139.0371 199.0071 L139.6686 193.1514 L140.3 185.4295 L140.9314 199.422 L141.5629 168.9968 L142.1943 190.2886 L142.8257 178.5009 L143.4571 184.8772 L144.0886 186.7488 L144.72 193.7331 L145.3514 192.1231 L145.9828 200.5257 L146.6143 175.5316 L147.2457 191.8346 L147.8771 184.4364 L148.5086 179.7258 L149.14 193.6245 L149.7714 183.2514 L150.4029 193.4897 L151.0343 190.7554 L151.6657 183.6798 L152.2971 188.345 L152.9286 181.7453 L153.56 189.991 L154.1914 186.9829 L154.8229 192.3348 L155.4543 190.5592 L156.0857 187.0688 L156.7171 190.4074 L157.3486 185.1252 L157.98 176.2421 L158.6114 194.6615 L159.2429 185.004 L159.8743 193.7639 L160.5057 182.3272 L161.1371 186.4972 L161.7686 198.685 L162.4 186.475 L163.0314 188.8591 L163.6629 182.0479 L164.2943 186.1552 L164.9257 202.9167 L165.5571 188.3788 L166.1886 184.0235 L166.82 181.0743 L167.4514 195.95 L168.0829 177.7839 L168.7143 183.3155 L169.3457 197.5557 L169.9771 206.2774 L170.6086 185.3723 L171.24 187.5986 L171.8714 176.6647 L172.5029 192.5239 L173.1343 179.5821 L173.7657 194.2623 L174.3971 186.4947 L175.0286 191.7686 L175.66 200.3247 L176.2914 185.9878 L176.9229 190.8681 L177.5543 186.0175 L178.1857 185.0516 L178.8171 194.4742 L179.4486 180.6162 L180.08 192.4368 L180.7114 182.8412 L181.3428 197.9162 L181.9743 179.4249 L182.6057 187.8012 L183.2371 188.2365 L183.8686 196.399 L184.5 195.2959 L185.1314 180.4242 L185.7629 201.773 L186.3943 182.4272 L187.0257 181.1813 L187.6572 193.2623 L188.2886 190.3754 L188.92 187.1484 L189.5514 194.408 L190.1829 184.8514 L190.8143 182.9849 L191.4457 193.179 L192.0771 192.7613 L192.7086 185.5898 L193.34 193.4738 L193.9714 184.1255 L194.6029 195.804 L195.2343 186.7788 L195.8657 183.8024 L196.4971 190.6094 L197.1286 187.8802 L197.76 197.4299 L198.3914 181.3904 L199.0229 181.902 L199.6543 197.01 L200.2857 212.619 L200.9171 217.2144 L201.5486 234.058 L202.18 219.6242 L202.8114 220.6699 L203.4429 197.7207 L204.0743 215.6008 L204.7057 211.3068 L205.3371 206.6641 L205.9686 206.6483 L206.6 214.9258 L207.2314 204.3095 L207.8629 208.5914 L208.4943 208.1456 L209.1257 204.8479 L209.7571 194.3216 L210.3886 209.17 L211.02 213.3318 L211.6514 202.2228 L212.2829 203.8239 L212.9143 207.8656 L213.5457 204.8902 L214.1772 209.1337 L214.8086 195.2351 L215.44 199.2258 L216.0714 219.9203 L216.7029 193.2942 L217.3343 204.8515 L217.9657 210.676 L218.5971 212.099 L219.2286 194.1708 L219.86 202.3271 L220.4914 206.9367 L221.1228 211.126 L221.7543 200.9046 L222.3857 197.7823 L223.0172 201.0218 L223.6486 203.9009 L224.28 211.713 L224.9114 200.1388 L225.5429 208.8756 L226.1743 197.0161 L226.8057 209.1774 L227.4371 208.5081 L228.0686 198.1004 L228.7 198.9846 L229.3314 211.1609 L229.9629 203.2969 L230.5943 199.9574 L231.2257 205.808 L231.8571 207.2088 L232.4886 196.3367 L233.12 209.2475 L233.7514 201.2124 L234.3829 201.4673 L235.0143 217.8889 L235.6457 201.6157 L236.2771 206.1221 L236.9086 205.1264 L237.54 201.47 L238.1714 197.957 L238.8029 202.3335 L239.4343 196.5811 L240.0657 201.2757 L240.6971 214.6242 L241.3286 205.4079 L241.96 213.0989 L242.5914 194.5107 L243.2229 208.1381 L243.8543 194.6288 L244.4857 218.8551 L245.1171 193.7737 L245.7486 208.6217 L246.38 202.9901 L247.0114 205.5913 L247.6429 209.1235 L248.2743 194.0374 L248.9057 209.3332 L249.5371 193.874 L250.1686 207.5896 L250.8 191.6164 L251.4314 210.5127 L252.0629 204.9904 L252.6943 211.9221 L253.3257 207.7699 L253.9571 203.0357 L254.5886 200.2428 L255.22 201.0585 L255.8514 205.2238 L256.4828 197.8805 L257.1143 209.9421 L257.7457 200.7624 L258.3771 201.309 L259.0086 206.3285 L259.64 201.6277 L260.2714 215.0081 L260.9029 202.6229 L261.5343 207.2025 L262.1657 193.2865 L262.7971 213.6164 L263.4286 196.5021 L264.06 208.5704 L264.6914 199.917 L265.3228 211.0556 L265.9543 202.6432 L266.5857 199.8621 L267.2171 208.4247 L267.8486 198.0499 L268.48 211.9921 L269.1114 191.0055 L269.7429 206.876 L270.3743 205.6266 L271.0057 205.3414 L271.6371 212.5374 L272.2686 200.4887 L272.9 199.6585 L273.5314 204.6275 L274.1629 206.2183 L274.7943 201.9795 L275.4257 200.1213 L276.0571 205.7397 L276.6886 205.8823 L277.32 198.1128 L277.9514 208.0516 L278.5829 197.8519 L279.2143 213.7838 L279.8457 209.7054 L280.4771 197.0037 L281.1086 199.3999 L281.74 208.2182 L282.3714 198.4797 L283.0028 207.8936 L283.6343 197.5553 L284.2657 205.6755 L284.8972 202.6761 L285.5286 205.4343 L286.16 198.2714 L286.7914 208.8968 L287.4229 210.3013 L288.0543 210.5701 L288.6857 195.4539 L289.3171 211.058 L289.9486 197.1097 L290.58 197.2238 L291.2114 205.9627 L291.8429 203.326 L292.4743 209.2989 L293.1057 200.0051 L293.7372 208.2057 L294.3686 199.5431 L295 206.2194 L295.6314 204.252 L296.2628 207.7903 L296.8943 201.2028 L297.5257 202.9532 L298.1571 205.3833 L298.7886 202.6516 L299.42 207.4093 L300.0514 202.6373 L300.6829 209.8394 L301.3143 189.9355 L301.9457 210.8844 L302.5771 200.0888 L303.2086 206.0593 L303.84 209.8624 L304.4714 207.0405 L305.1028 203.3187 L305.7343 194.4997 L306.3657 207.6272 L306.9972 202.8812 L307.6286 199.983 L308.26 203.5054 L308.8914 207.9976 L309.5229 197.9379 L310.1543 207.0749 L310.7857 212.7616 L311.4171 199.1101 L312.0486 211.5608 L312.68 201.1425 L313.3114 203.119 L313.9429 199.7597 L314.5743 198.5244 L315.2057 208.0881 L315.8371 204.9023 L316.4686 204.2847 L317.1 203.8367 L317.7314 202.2859 L318.3629 204.2206 L318.9943 202.192 L319.6257 208.654 L320.2571 208.0663 L320.8885 200.2725 L321.52 207.2801 L322.1514 199.6918 L322.7829 200.8045 L323.4143 202.0139 L324.0457 203.8267 L324.6772 208.7297 L325.3086 199.9939 L325.94 205.7866 L326.5714 179.5802 L327.2029 172.8535 L327.8343 168.3452 L328.4657 166.6711 L329.0971 175.7649 L329.7286 168.5503 L330.36 177.8064 L330.9914 197.2306 L331.6229 185.9591 L332.2543 189.8194 L332.8857 179.9426 L333.5171 187.1584 L334.1486 200.3084 L334.78 184.0821 L335.4114 186.8583 L336.0428 185.5415 L336.6743 182.1983 L337.3057 187.7282 L337.9371 188.0602 L338.5686 189.7562 L339.2 181.3266 L339.8314 188.3995 L340.4629 192.9937 L341.0943 194.9362 L341.7257 189.4328 L342.3571 181.2115 L342.9886 196.0169 L343.62 188.6273 L344.2514 183.006 L344.8829 190.0318 L345.5143 184.6606 L346.1457 192.4889 L346.7772 190.4732 L347.4086 180.9431 L348.04 188.4754 L348.6714 189.1858 L349.3029 187.6205 L349.9343 196.1454 L350.5657 184.1848 L351.1971 186.6965 L351.8286 196.5754 L352.46 186.785 L353.0914 185.6564 L353.7228 194.3308 L354.3543 185.7921 L354.9857 192.7268 L355.6171 187.8357 L356.2486 187.6502 L356.88 193.7656 L357.5114 187.2092 L358.1429 187.0268 L358.7743 183.9194 L359.4057 193.9042 L360.0371 184.4639 L360.6686 194.6843 L361.3 187.8692 L361.9314 192.5484 L362.5629 178.7143 L363.1943 189.3923 L363.8257 190.4933 L364.4572 192.97 L365.0886 197.3318 L365.72 184.1952 L366.3514 188.0573 L366.9829 183.7621 L367.6143 197.0807 L368.2457 180.1206 L368.8771 190.5365 L369.5086 183.3376 L370.14 193.7917 L370.7714 187.2619 L371.4029 183.6111 L372.0343 194.9959 L372.6657 185.2728 L373.2971 197.1548 L373.9286 190.267 L374.56 194.0276 L375.1914 185.03 L375.8228 183.0831 L376.4543 188.1069 L377.0857 186.1538 L377.7171 184.4391 L378.3486 192.3247 L378.98 185.7548 L379.6115 194.036 L380.2429 184.7161 L380.8743 186.1713 L381.5057 193.907 L382.1371 179.936 L382.7686 186.6133 L383.4 189.1216 L384.0314 191.3785 L384.6629 193.163 L385.2943 186.176 L385.9257 193.5694 L386.5571 185.6032 L387.1886 188.4289 L387.82 182.5992 L388.4514 188.7355 L389.0829 193.5767 L389.7143 186.3995 L390.3457 183.8949 L390.9771 189.568 L391.6086 187.7956 L392.24 186.2393 L392.8714 191.5231 L393.5028 181.4417 L394.1343 187.3135 L394.7657 187.8789 L395.3972 187.5988 L396.0286 191.2049 L396.66 186.6794 L397.2914 189.359 L397.9229 184.7558 L398.5543 184.4241 L399.1857 187.4883 L399.8171 184.7362 L400.4486 186.1724 L401.08 188.989 L401.7114 192.6782 L402.3429 187.4078 L402.9743 189.9819 L403.6057 179.0429 L404.2372 191.9578 L404.8686 181.5752 L405.5 186.0556 L406.1314 191.0792 L406.7628 189.7227 L407.3943 187.793 L408.0257 193.4491 L408.6571 182.8555 L409.2886 177.0607 L409.92 181.5729 L410.5514 186.3372 L411.1829 190.9026 L411.8143 185.5734 L412.4457 185.994 L413.0771 190.484 L413.7086 188.4099 L414.34 189.7143 L414.9714 190.489 L415.6028 179.8996 L416.2343 180.5153 L416.8657 194.2726 L417.4972 182.354 L418.1286 188.3738 L418.76 193.787 L419.3914 186.3189 L420.0229 183.4525 L420.6543 186.4305 L421.2857 180.7705 L421.9171 187.8787 L422.5486 190.6157 L423.18 187.5124 L423.8114 184.9234 L424.4429 188.8513 L425.0743 178.7718 L425.7057 185.5328 L426.3371 188.6428 L426.9686 184.9143 L427.6 187.5606 L428.2314 189.4681 L428.8629 187.8126 L429.4943 186.1026 L430.1257 181.9439 L430.7571 186.6211 L431.3885 191.1656 L432.02 187.6858 L432.6514 178.1742 L433.2829 184.762 L433.9143 190.8462 L434.5457 186.3109 L435.1772 193.0316 L435.8086 182.2654 L436.44 192.1045 L437.0714 186.4883 L437.7029 185.6452 L438.3343 182.2939 L438.9657 185.2459 L439.5971 182.5681 L440.2286 183.0442 L440.86 190.1033 L441.4914 184.0761 L442.1229 186.3846 L442.7543 182.4664 L443.3857 193.2655 L444.0171 190.2751 L444.6486 190.5838 L445.28 186.9207 L445.9114 189.7425 L446.5428 185.905 L447.1743 183.8613 L447.8057 187.3108 L448.4371 187.0921 L449.0686 185.058 L449.7 182.8686 L450.3314 192.9806 L450.9629 183.9218 L451.5943 191.1431 L452.2257 188.2355 L452.8571 189.6529 L453.4886 184.3825 L454.12 187.7605 L454.7514 186.5371 L455.3829 189.0644 L456.0143 180.8198 L456.6457 185.6453 L457.2772 184.6902 L457.9086 196.0306 L458.54 183.407 L459.1714 192.4373 L459.8029 187.46 L460.4343 184.4524 L461.0657 189.9397 L461.6971 185.1359 L462.3286 180.54 L462.96 188.0108 L463.5914 191.7536 L464.2228 185.2309 L464.8543 189.6661 L465.4857 188.4525 L466.1171 188.7368 L466.7486 186.6889 L467.38 187.3502 L468.0114 188.3786 L468.6429 186.9203 L469.2743 187.9052 L469.9057 189.8442 L470.5371 182.0764 L471.1686 193.9129 L471.8 187.4877 L472.4314 188.0267 L473.0629 186.1379 L473.6943 189.9455 L474.3257 189.1084 L474.9572 184.1238 L475.5886 190.7128 L476.22 190.5594 L476.8514 192.0453 L477.4829 189.195 L478.1143 182.2908 L478.7457 189.7041 L479.3771 189.286 L480.0086 183.841 L480.64 183.7762 L481.2714 193.9004 L481.9029 189.1492 L482.5343 185.4789 L483.1657 190.8522 L483.7971 184.4635 L484.4286 187.1515 L485.06 190.2482 L485.6914 193.8589 L486.3229 186.9498 L486.9543 192.1647 L487.5857 184.9278 L488.2171 186.1801 L488.8485 191.1768 L489.48 186.2107 L490.1115 191.2365 L490.7429 193.1914 L491.3743 189.9647 L492.0057 187.2808 L492.6372 190.4905 L493.2686 189.6316 L493.9 189.4171 L494.5314 192.2203 L495.1628 183.822 L495.7943 185.5465 L496.4257 194.1139 L497.0571 190.0043 L497.6886 188.2488 L498.32 186.3257 L498.9514 178.9538 L499.5829 185.9438 L500.2143 196.3611 L500.8457 188.8574 L501.4771 192.8322 L502.1086 189.7561 L502.74 193.3259 L503.3714 185.808 L504.0028 191.3038 L504.6343 185.2829 L505.2657 189.757 L505.8972 192.0797 L506.5286 182.2452 L507.16 187.469 L507.7914 196.0615 L508.4229 191.7225 L509.0543 192.0816 L509.6857 190.743 L510.3171 188.6561 L510.9485 188.4493 L511.58 190.5158 L512.2114 185.977 L512.8428 184.6038 L513.4743 181.7732 L514.1057 188.6304 L514.7372 190.6706 L515.3686 195.4" style="fill:none; fill-rule:evenodd;"
    /></g
  ></g
></svg
>
