<?xml version="1.0"?>
<!DOCTYPE svg PUBLIC '-//W3C//DTD SVG 1.0//EN'
          'http://www.w3.org/TR/2001/REC-SVG-20010904/DTD/svg10.dtd'>
<svg xmlns:xlink="http://www.w3.org/1999/xlink" style="fill-opacity:1; color-rendering:auto; color-interpolation:auto; text-rendering:auto; stroke:black; stroke-linecap:square; stroke-miterlimit:10; shape-rendering:auto; stroke-opacity:1; fill:black; stroke-dasharray:none; font-weight:normal; stroke-width:1; font-family:'Dialog'; font-style:normal; stroke-linejoin:miter; font-size:12px; stroke-dashoffset:0; image-rendering:auto;" width="570" height="422" xmlns="http://www.w3.org/2000/svg"
><!--Generated by the Batik Graphics2D SVG Generator--><defs id="genericDefs"
  /><g
  ><defs id="defs1"
    ><clipPath clipPathUnits="userSpaceOnUse" id="clipPath1"
      ><path d="M0 0 L570 0 L570 422 L0 422 L0 0 Z"
      /></clipPath
      ><font horiz-adv-x="60.009766" id="font1"
      ><font-face ascent="92.822266" descent="23.583984" units-per-em="100" style="font-style:normal; font-family:SansSerif; font-weight:normal;"
        /><missing-glyph horiz-adv-x="60.009766" d="M4.9844 -17.6719 L4.9844 70.5156 L54.9844 70.5156 L54.9844 -17.6719 L4.9844 -17.6719 ZM10.5938 -12.1094 L49.4219 -12.1094 L49.4219 64.8906 L10.5938 64.8906 L10.5938 -12.1094 Z"
        /><glyph unicode="0" horiz-adv-x="63.623047" d="M31.7812 66.4062 Q24.1719 66.4062 20.3359 58.9141 Q16.5 51.4219 16.5 36.375 Q16.5 21.3906 20.3359 13.8906 Q24.1719 6.3906 31.7812 6.3906 Q39.4531 6.3906 43.2891 13.8906 Q47.125 21.3906 47.125 36.375 Q47.125 51.4219 43.2891 58.9141 Q39.4531 66.4062 31.7812 66.4062 ZM31.7812 74.2188 Q44.0469 74.2188 50.5156 64.5234 Q56.9844 54.8281 56.9844 36.375 Q56.9844 17.9688 50.5156 8.2734 Q44.0469 -1.4219 31.7812 -1.4219 Q19.5312 -1.4219 13.0625 8.2734 Q6.5938 17.9688 6.5938 36.375 Q6.5938 54.8281 13.0625 64.5234 Q19.5312 74.2188 31.7812 74.2188 Z"
        /><glyph unicode="1" horiz-adv-x="63.623047" d="M12.4062 8.2969 L28.5156 8.2969 L28.5156 63.9219 L10.9844 60.4062 L10.9844 69.3906 L28.4219 72.9062 L38.2812 72.9062 L38.2812 8.2969 L54.3906 8.2969 L54.3906 0 L12.4062 0 L12.4062 8.2969 Z"
        /><glyph unicode="2" horiz-adv-x="63.623047" d="M19.1875 8.2969 L53.6094 8.2969 L53.6094 0 L7.3281 0 L7.3281 8.2969 Q12.9375 14.1094 22.6328 23.8984 Q32.3281 33.6875 34.8125 36.5312 Q39.5469 41.8438 41.4297 45.5312 Q43.3125 49.2188 43.3125 52.7812 Q43.3125 58.5938 39.2344 62.2578 Q35.1562 65.9219 28.6094 65.9219 Q23.9688 65.9219 18.8203 64.3125 Q13.6719 62.7031 7.8125 59.4219 L7.8125 69.3906 Q13.7656 71.7812 18.9453 73 Q24.125 74.2188 28.4219 74.2188 Q39.75 74.2188 46.4844 68.5547 Q53.2188 62.8906 53.2188 53.4219 Q53.2188 48.9219 51.5391 44.8984 Q49.8594 40.875 45.4062 35.4062 Q44.1875 33.9844 37.6484 27.2188 Q31.1094 20.4531 19.1875 8.2969 Z"
        /><glyph unicode="3" horiz-adv-x="63.623047" d="M40.5781 39.3125 Q47.6562 37.7969 51.6328 33.0078 Q55.6094 28.2188 55.6094 21.1875 Q55.6094 10.4062 48.1875 4.4922 Q40.7656 -1.4219 27.0938 -1.4219 Q22.5156 -1.4219 17.6562 -0.5156 Q12.7969 0.3906 7.625 2.2031 L7.625 11.7188 Q11.7188 9.3281 16.6016 8.1094 Q21.4844 6.8906 26.8125 6.8906 Q36.0781 6.8906 40.9375 10.5469 Q45.7969 14.2031 45.7969 21.1875 Q45.7969 27.6406 41.2812 31.2734 Q36.7656 34.9062 28.7188 34.9062 L20.2188 34.9062 L20.2188 43.0156 L29.1094 43.0156 Q36.375 43.0156 40.2344 45.9219 Q44.0938 48.8281 44.0938 54.2969 Q44.0938 59.9062 40.1172 62.9141 Q36.1406 65.9219 28.7188 65.9219 Q24.6562 65.9219 20.0156 65.0391 Q15.375 64.1562 9.8125 62.3125 L9.8125 71.0938 Q15.4375 72.6562 20.3438 73.4375 Q25.25 74.2188 29.5938 74.2188 Q40.8281 74.2188 47.3672 69.1172 Q53.9062 64.0156 53.9062 55.3281 Q53.9062 49.2656 50.4375 45.0938 Q46.9688 40.9219 40.5781 39.3125 Z"
        /><glyph unicode="4" horiz-adv-x="63.623047" d="M37.7969 64.3125 L12.8906 25.3906 L37.7969 25.3906 L37.7969 64.3125 ZM35.2031 72.9062 L47.6094 72.9062 L47.6094 25.3906 L58.0156 25.3906 L58.0156 17.1875 L47.6094 17.1875 L47.6094 0 L37.7969 0 L37.7969 17.1875 L4.8906 17.1875 L4.8906 26.7031 L35.2031 72.9062 Z"
        /><glyph unicode="5" horiz-adv-x="63.623047" d="M10.7969 72.9062 L49.5156 72.9062 L49.5156 64.5938 L19.8281 64.5938 L19.8281 46.7344 Q21.9688 47.4688 24.1172 47.8281 Q26.2656 48.1875 28.4219 48.1875 Q40.625 48.1875 47.7578 41.5 Q54.8906 34.8125 54.8906 23.3906 Q54.8906 11.625 47.5625 5.1016 Q40.2344 -1.4219 26.9062 -1.4219 Q22.3125 -1.4219 17.5547 -0.6406 Q12.7969 0.1406 7.7188 1.7031 L7.7188 11.625 Q12.1094 9.2344 16.7969 8.0625 Q21.4844 6.8906 26.7031 6.8906 Q35.1562 6.8906 40.0859 11.3281 Q45.0156 15.7656 45.0156 23.3906 Q45.0156 31 40.0859 35.4453 Q35.1562 39.8906 26.7031 39.8906 Q22.75 39.8906 18.8203 39.0156 Q14.8906 38.1406 10.7969 36.2812 L10.7969 72.9062 Z"
        /><glyph unicode="6" horiz-adv-x="63.623047" d="M33.0156 40.375 Q26.375 40.375 22.4922 35.8359 Q18.6094 31.2969 18.6094 23.3906 Q18.6094 15.5312 22.4922 10.9609 Q26.375 6.3906 33.0156 6.3906 Q39.6562 6.3906 43.5312 10.9609 Q47.4062 15.5312 47.4062 23.3906 Q47.4062 31.2969 43.5312 35.8359 Q39.6562 40.375 33.0156 40.375 ZM52.5938 71.2969 L52.5938 62.3125 Q48.875 64.0625 45.0938 64.9922 Q41.3125 65.9219 37.5938 65.9219 Q27.8281 65.9219 22.6797 59.3281 Q17.5312 52.7344 16.7969 39.4062 Q19.6719 43.6562 24.0234 45.9219 Q28.375 48.1875 33.5938 48.1875 Q44.5781 48.1875 50.9531 41.5234 Q57.3281 34.8594 57.3281 23.3906 Q57.3281 12.1562 50.6875 5.3672 Q44.0469 -1.4219 33.0156 -1.4219 Q20.3594 -1.4219 13.6719 8.2734 Q6.9844 17.9688 6.9844 36.375 Q6.9844 53.6562 15.1875 63.9375 Q23.3906 74.2188 37.2031 74.2188 Q40.9219 74.2188 44.7031 73.4844 Q48.4844 72.75 52.5938 71.2969 Z"
        /><glyph unicode="7" horiz-adv-x="63.623047" d="M8.2031 72.9062 L55.0781 72.9062 L55.0781 68.7031 L28.6094 0 L18.3125 0 L43.2188 64.5938 L8.2031 64.5938 L8.2031 72.9062 Z"
        /><glyph unicode="-" horiz-adv-x="36.083984" d="M4.8906 31.3906 L31.2031 31.3906 L31.2031 23.3906 L4.8906 23.3906 L4.8906 31.3906 Z"
      /></font
    ></defs
    ><g style="fill:white; stroke:white;"
    ><rect x="0" y="0" width="570" style="clip-path:url(#clipPath1); stroke:none;" height="422"
    /></g
    ><g style="fill:white; text-rendering:optimizeSpeed; color-rendering:optimizeSpeed; image-rendering:optimizeSpeed; shape-rendering:crispEdges; stroke:white; color-interpolation:sRGB;"
    ><rect x="0" width="570" height="422" y="0" style="stroke:none;"
      /><path style="stroke:none;" d="M74 376 L516 376 L516 32 L74 32 Z"
    /></g
    ><g style="fill:rgb(38,38,38); text-rendering:geometricPrecision; image-rendering:optimizeQuality; color-rendering:optimizeQuality; stroke-linejoin:round; stroke:rgb(38,38,38); color-interpolation:linearRGB; stroke-width:0.6667;"
    ><line y2="376" style="fill:none;" x1="74" x2="516" y1="376"
      /><line y2="371.58" style="fill:none;" x1="74" x2="74" y1="376"
      /><line y2="371.58" style="fill:none;" x1="137.1429" x2="137.1429" y1="376"
      /><line y2="371.58" style="fill:none;" x1="200.2857" x2="200.2857" y1="376"
      /><line y2="371.58" style="fill:none;" x1="263.4286" x2="263.4286" y1="376"
      /><line y2="371.58" style="fill:none;" x1="326.5714" x2="326.5714" y1="376"
      /><line y2="371.58" style="fill:none;" x1="389.7143" x2="389.7143" y1="376"
      /><line y2="371.58" style="fill:none;" x1="452.8571" x2="452.8571" y1="376"
      /><line y2="371.58" style="fill:none;" x1="516" x2="516" y1="376"
    /></g
    ><g transform="translate(74,381.3333)" style="font-size:13.3333px; fill:rgb(38,38,38); text-rendering:geometricPrecision; image-rendering:optimizeQuality; color-rendering:optimizeQuality; font-family:'SansSerif'; stroke:rgb(38,38,38); color-interpolation:linearRGB;"
    ><text x="-4.5" xml:space="preserve" y="13" style="stroke:none;"
      >0</text
    ></g
    ><g transform="translate(137.1429,381.3333)" style="font-size:13.3333px; fill:rgb(38,38,38); text-rendering:geometricPrecision; image-rendering:optimizeQuality; color-rendering:optimizeQuality; font-family:'SansSerif'; stroke:rgb(38,38,38); color-interpolation:linearRGB;"
    ><text x="-8.5" xml:space="preserve" y="13" style="stroke:none;"
      >10</text
    ></g
    ><g transform="translate(200.2857,381.3333)" style="font-size:13.3333px; fill:rgb(38,38,38); text-rendering:geometricPrecision; image-rendering:optimizeQuality; color-rendering:optimizeQuality; font-family:'SansSerif'; stroke:rgb(38,38,38); color-interpolation:linearRGB;"
    ><text x="-8.5" xml:space="preserve" y="13" style="stroke:none;"
      >20</text
    ></g
    ><g transform="translate(263.4286,381.3333)" style="font-size:13.3333px; fill:rgb(38,38,38); text-rendering:geometricPrecision; image-rendering:optimizeQuality; color-rendering:optimizeQuality; font-family:'SansSerif'; stroke:rgb(38,38,38); color-interpolation:linearRGB;"
    ><text x="-8.5" xml:space="preserve" y="13" style="stroke:none;"
      >30</text
    ></g
    ><g transform="translate(326.5714,381.3333)" style="font-size:13.3333px; fill:rgb(38,38,38); text-rendering:geometricPrecision; image-rendering:optimizeQuality; color-rendering:optimizeQuality; font-family:'SansSerif'; stroke:rgb(38,38,38); color-interpolation:linearRGB;"
    ><text x="-8.5" xml:space="preserve" y="13" style="stroke:none;"
      >40</text
    ></g
    ><g transform="translate(389.7143,381.3333)" style="font-size:13.3333px; fill:rgb(38,38,38); text-rendering:geometricPrecision; image-rendering:optimizeQuality; color-rendering:optimizeQuality; font-family:'SansSerif'; stroke:rgb(38,38,38); color-interpolation:linearRGB;"
    ><text x="-8.5" xml:space="preserve" y="13" style="stroke:none;"
      >50</text
    ></g
    ><g transform="translate(452.8571,381.3333)" style="font-size:13.3333px; fill:rgb(38,38,38); text-rendering:geometricPrecision; image-rendering:optimizeQuality; color-rendering:optimizeQuality; font-family:'SansSerif'; stroke:rgb(38,38,38); color-interpolation:linearRGB;"
    ><text x="-8.5" xml:space="preserve" y="13" style="stroke:none;"
      >60</text
    ></g
    ><g transform="translate(516,381.3333)" style="font-size:13.3333px; fill:rgb(38,38,38); text-rendering:geometricPrecision; image-rendering:optimizeQuality; color-rendering:optimizeQuality; font-family:'SansSerif'; stroke:rgb(38,38,38); color-interpolation:linearRGB;"
    ><text x="-8.5" xml:space="preserve" y="13" style="stroke:none;"
      >70</text
    ></g
    ><g style="fill:rgb(38,38,38); text-rendering:geometricPrecision; image-rendering:optimizeQuality; color-rendering:optimizeQuality; stroke-linejoin:round; stroke:rgb(38,38,38); color-interpolation:linearRGB; stroke-width:0.6667;"
    ><line y2="32" style="fill:none;" x1="74" x2="74" y1="376"
      /><line y2="376" style="fill:none;" x1="74" x2="78.42" y1="376"
      /><line y2="333" style="fill:none;" x1="74" x2="78.42" y1="333"
      /><line y2="290" style="fill:none;" x1="74" x2="78.42" y1="290"
      /><line y2="247" style="fill:none;" x1="74" x2="78.42" y1="247"
      /><line y2="204" style="fill:none;" x1="74" x2="78.42" y1="204"
      /><line y2="161" style="fill:none;" x1="74" x2="78.42" y1="161"
      /><line y2="118" style="fill:none;" x1="74" x2="78.42" y1="118"
      /><line y2="75" style="fill:none;" x1="74" x2="78.42" y1="75"
      /><line y2="32" style="fill:none;" x1="74" x2="78.42" y1="32"
    /></g
    ><g transform="translate(68.6667,376)" style="font-size:13.3333px; fill:rgb(38,38,38); text-rendering:geometricPrecision; image-rendering:optimizeQuality; color-rendering:optimizeQuality; font-family:'SansSerif'; stroke:rgb(38,38,38); color-interpolation:linearRGB;"
    ><text x="-22" xml:space="preserve" y="4.5" style="stroke:none;"
      >-20</text
    ></g
    ><g transform="translate(68.6667,333)" style="font-size:13.3333px; fill:rgb(38,38,38); text-rendering:geometricPrecision; image-rendering:optimizeQuality; color-rendering:optimizeQuality; font-family:'SansSerif'; stroke:rgb(38,38,38); color-interpolation:linearRGB;"
    ><text x="-22" xml:space="preserve" y="4.5" style="stroke:none;"
      >-15</text
    ></g
    ><g transform="translate(68.6667,290)" style="font-size:13.3333px; fill:rgb(38,38,38); text-rendering:geometricPrecision; image-rendering:optimizeQuality; color-rendering:optimizeQuality; font-family:'SansSerif'; stroke:rgb(38,38,38); color-interpolation:linearRGB;"
    ><text x="-22" xml:space="preserve" y="4.5" style="stroke:none;"
      >-10</text
    ></g
    ><g transform="translate(68.6667,247)" style="font-size:13.3333px; fill:rgb(38,38,38); text-rendering:geometricPrecision; image-rendering:optimizeQuality; color-rendering:optimizeQuality; font-family:'SansSerif'; stroke:rgb(38,38,38); color-interpolation:linearRGB;"
    ><text x="-14" xml:space="preserve" y="4.5" style="stroke:none;"
      >-5</text
    ></g
    ><g transform="translate(68.6667,204)" style="font-size:13.3333px; fill:rgb(38,38,38); text-rendering:geometricPrecision; image-rendering:optimizeQuality; color-rendering:optimizeQuality; font-family:'SansSerif'; stroke:rgb(38,38,38); color-interpolation:linearRGB;"
    ><text x="-9" xml:space="preserve" y="4.5" style="stroke:none;"
      >0</text
    ></g
    ><g transform="translate(68.6667,161)" style="font-size:13.3333px; fill:rgb(38,38,38); text-rendering:geometricPrecision; image-rendering:optimizeQuality; color-rendering:optimizeQuality; font-family:'SansSerif'; stroke:rgb(38,38,38); color-interpolation:linearRGB;"
    ><text x="-9" xml:space="preserve" y="4.5" style="stroke:none;"
      >5</text
    ></g
    ><g transform="translate(68.6667,118)" style="font-size:13.3333px; fill:rgb(38,38,38); text-rendering:geometricPrecision; image-rendering:optimizeQuality; color-rendering:optimizeQuality; font-family:'SansSerif'; stroke:rgb(38,38,38); color-interpolation:linearRGB;"
    ><text x="-17" xml:space="preserve" y="4.5" style="stroke:none;"
      >10</text
    ></g
    ><g transform="translate(68.6667,75)" style="font-size:13.3333px; fill:rgb(38,38,38); text-rendering:geometricPrecision; image-rendering:optimizeQuality; color-rendering:optimizeQuality; font-family:'SansSerif'; stroke:rgb(38,38,38); color-interpolation:linearRGB;"
    ><text x="-17" xml:space="preserve" y="4.5" style="stroke:none;"
      >15</text
    ></g
    ><g transform="translate(68.6667,32)" style="font-size:13.3333px; fill:rgb(38,38,38); text-rendering:geometricPrecision; image-rendering:optimizeQuality; color-rendering:optimizeQuality; font-family:'SansSerif'; stroke:rgb(38,38,38); color-interpolation:linearRGB;"
    ><text x="-17" xml:space="preserve" y="4.5" style="stroke:none;"
      >20</text
    ></g
    ><g style="stroke-linecap:butt; fill:yellow; text-rendering:geometricPrecision; image-rendering:optimizeQuality; color-rendering:optimizeQuality; stroke-linejoin:round; stroke:yellow; color-interpolation:linearRGB; stroke-width:0.6667;"
    ><path d="M74 195.4 L74.6314 195.4 L75.2629 191.0585 L75.8943 94.8757 L76.5257 32 L77.1571 32 L77.7886 376 L78.42 376 L79.0514 376 L79.6829 150.1083 L80.3143 89.5388 L80.9457 121.2828 L81.5771 164.6452 L82.2086 204.1519 L82.84 234.1391 L83.4714 181.0528 L84.1029 158.1209 L84.7343 169.382 L85.3657 199.8803 L85.9971 171.6989 L86.6286 176.9053 L87.26 161.4804 L87.8914 196.8303 L88.5229 175.0784 L89.1543 192.8716 L89.7857 178.8534 L90.4171 181.4471 L91.0486 181.7917 L91.68 183.1997 L92.3114 182.8865 L92.9429 196.0647 L93.5743 175.1098 L94.2057 184.487 L94.8371 191.8109 L95.4686 169.3701 L96.1 220.5245 L96.7314 178.427 L97.3629 175.0302 L97.9943 177.4577 L98.6257 212.1892 L99.2571 183.7543 L99.8886 171.8515 L100.52 179.4704 L101.1514 211.7073 L101.7829 189.2843 L102.4143 175.7868 L103.0457 193.0394 L103.6771 187.447 L104.3086 181.4368 L104.94 158.146 L105.5714 214.4199 L106.2029 184.5417 L106.8343 195.1315 L107.4657 164.1871 L108.0971 198.6769 L108.7286 191.5686 L109.36 192.4933 L109.9914 182.0935 L110.6229 195.4086 L111.2543 155.8447 L111.8857 198.7981 L112.5171 194.8733 L113.1486 156.864 L113.78 214.4993 L114.4114 185.9624 L115.0429 189.7922 L115.6743 189.5853 L116.3057 170.8299 L116.9371 183.334 L117.5686 209.9107 L118.2 163.989 L118.8314 187.8167 L119.4629 198.0319 L120.0943 182.5316 L120.7257 189.0408 L121.3571 190.5164 L121.9886 183.7936 L122.62 187.416 L123.2514 183.0831 L123.8829 182.894 L124.5143 175.1795 L125.1457 194.2076 L125.7771 186.9057 L126.4086 202.4014 L127.04 182.0821 L127.6714 173.4948 L128.3029 207.19 L128.9343 176.4546 L129.5657 195.9104 L130.1971 168.9877 L130.8286 185.0732 L131.46 196.8965 L132.0914 181.6748 L132.7229 192.0838 L133.3543 181.7677 L133.9857 179.752 L134.6171 202.8141 L135.2486 188.791 L135.88 179.6679 L136.5114 182.4662 L137.1429 194.0191 L137.7743 182.1794 L138.4057 184.6567 L139.0371 175.4381 L139.6686 191.318 L140.3 188.631 L140.9314 201.0755 L141.5629 167.2581 L142.1943 195.6524 L142.8257 193.2193 L143.4571 202.5441 L144.0886 180.9569 L144.72 184.6244 L145.3514 180.2688 L145.9828 184.3546 L146.6143 191.7776 L147.2457 176.6051 L147.8771 188.9566 L148.5086 190.3289 L149.14 200.5125 L149.7714 183.6416 L150.4029 193.5256 L151.0343 180.0021 L151.6657 183.5267 L152.2971 189.6313 L152.9286 187.6229 L153.56 182.5199 L154.1914 194.5183 L154.8229 184.7035 L155.4543 183.1923 L156.0857 205.4837 L156.7171 169.3631 L157.3486 201.4499 L157.98 181.6351 L158.6114 196.5615 L159.2429 186.2216 L159.8743 186.7926 L160.5057 183.3217 L161.1371 190.4832 L161.7686 181.9489 L162.4 208.7738 L163.0314 169.9372 L163.6629 201.1805 L164.2943 177.461 L164.9257 191.4677 L165.5571 192.3618 L166.1886 180.1357 L166.82 197.5443 L167.4514 181.8028 L168.0829 179.8045 L168.7143 199.7792 L169.3457 181.0843 L169.9771 199.1422 L170.6086 190.8058 L171.24 194.8722 L171.8714 159.4654 L172.5029 205.5533 L173.1343 183.6476 L173.7657 206.9681 L174.3971 173.1159 L175.0286 201.3243 L175.66 170.7395 L176.2914 192.0161 L176.9229 182.088 L177.5543 197.3589 L178.1857 198.0118 L178.8171 175.507 L179.4486 199.332 L180.08 192.5595 L180.7114 195.6779 L181.3428 191.5793 L181.9743 173.7834 L182.6057 193.0112 L183.2371 177.4048 L183.8686 193.8274 L184.5 185.8344 L185.1314 193.254 L185.7629 191.9545 L186.3943 189.8206 L187.0257 195.156 L187.6572 187.4459 L188.2886 184.8073 L188.92 180.5031 L189.5514 191.9684 L190.1829 181.5855 L190.8143 187.4431 L191.4457 195.599 L192.0771 189.8622 L192.7086 193.544 L193.34 194.3087 L193.9714 178.6628 L194.6029 206.4048 L195.2343 177.5408 L195.8657 190.7167 L196.4971 193.237 L197.1286 188.0786 L197.76 177.6343 L198.3914 193.5944 L199.0229 197.1272 L199.6543 182.7287 L200.2857 248.6644 L200.9171 250.0591 L201.5486 239.6203 L202.18 216.1195 L202.8114 231.4855 L203.4429 220.5988 L204.0743 193.361 L204.7057 199.4612 L205.3371 201.8069 L205.9686 214.9947 L206.6 202.6784 L207.2314 195.8129 L207.8629 204.288 L208.4943 205.5966 L209.1257 207.1139 L209.7571 220.1142 L210.3886 195.5446 L211.02 214.8795 L211.6514 208.357 L212.2829 196.5154 L212.9143 205.3571 L213.5457 200.8707 L214.1772 201.4926 L214.8086 206.4146 L215.44 202.445 L216.0714 213.0777 L216.7029 210.7016 L217.3343 206.237 L217.9657 192.1598 L218.5971 204.8404 L219.2286 186.444 L219.86 202.7566 L220.4914 209.9488 L221.1228 222.5517 L221.7543 205.8354 L222.3857 204.3639 L223.0172 184.8446 L223.6486 223.5896 L224.28 191.7059 L224.9114 206.412 L225.5429 204.8837 L226.1743 205.3949 L226.8057 197.9801 L227.4371 198.8726 L228.0686 214.9924 L228.7 201.5754 L229.3314 203.0283 L229.9629 213.0668 L230.5943 192.1138 L231.2257 213.8581 L231.8571 191.6796 L232.4886 197.0225 L233.12 209.6831 L233.7514 216.4017 L234.3829 213.1923 L235.0143 212.7703 L235.6457 191.5582 L236.2771 187.53 L236.9086 189.9624 L237.54 221.9073 L238.1714 193.5621 L238.8029 208.6202 L239.4343 209.7265 L240.0657 205.2474 L240.6971 203.7677 L241.3286 203.1928 L241.96 212.0805 L242.5914 203.255 L243.2229 200.9563 L243.8543 215.108 L244.4857 188.3408 L245.1171 209.5365 L245.7486 197.2025 L246.38 203.6803 L247.0114 200.0643 L247.6429 210.8087 L248.2743 202.9769 L248.9057 200.5336 L249.5371 202.4325 L250.1686 199.6648 L250.8 202.5252 L251.4314 209.0711 L252.0629 213.4553 L252.6943 204.5422 L253.3257 200.6099 L253.9571 213.567 L254.5886 188.6418 L255.22 208.3258 L255.8514 206.6325 L256.4828 203.8443 L257.1143 209.626 L257.7457 198.505 L258.3771 207.5665 L259.0086 199.1327 L259.64 198.8799 L260.2714 213.8669 L260.9029 198.957 L261.5343 204.8712 L262.1657 212.1566 L262.7971 195.0616 L263.4286 197.9004 L264.06 204.3577 L264.6914 202.0453 L265.3228 212.1009 L265.9543 207.9871 L266.5857 198.6421 L267.2171 201.3288 L267.8486 209.4341 L268.48 203.0101 L269.1114 197.8756 L269.7429 207.9772 L270.3743 203.408 L271.0057 199.9666 L271.6371 210.2468 L272.2686 197.0627 L272.9 208.3438 L273.5314 214.2104 L274.1629 195.8468 L274.7943 201.3718 L275.4257 214.532 L276.0571 197.711 L276.6886 195.1792 L277.32 213.8715 L277.9514 196.6394 L278.5829 206.8702 L279.2143 206.8872 L279.8457 204.0219 L280.4771 201.1691 L281.1086 214.1073 L281.74 195.774 L282.3714 193.2415 L283.0028 204.9647 L283.6343 211.2846 L284.2657 214.6233 L284.8972 203.1536 L285.5286 198.6183 L286.16 205.1666 L286.7914 198.2249 L287.4229 203.755 L288.0543 193.8681 L288.6857 211.804 L289.3171 207.6368 L289.9486 215.5433 L290.58 196.3395 L291.2114 205.8932 L291.8429 197.6776 L292.4743 214.5842 L293.1057 189.8936 L293.7372 196.0428 L294.3686 209.0141 L295 206.0502 L295.6314 205.7915 L296.2628 206.6733 L296.8943 208.7003 L297.5257 204.6725 L298.1571 201.7291 L298.7886 204.0401 L299.42 207.6633 L300.0514 197.3082 L300.6829 208.1556 L301.3143 206.7609 L301.9457 195.0704 L302.5771 210.7551 L303.2086 200.5501 L303.84 196.2613 L304.4714 223.8838 L305.1028 200.5082 L305.7343 203.9418 L306.3657 191.2563 L306.9972 207.8318 L307.6286 196.8631 L308.26 202.3403 L308.8914 204.6208 L309.5229 203.2363 L310.1543 208.7812 L310.7857 209.8564 L311.4171 213.7283 L312.0486 198.329 L312.68 206.4005 L313.3114 199.649 L313.9429 190.968 L314.5743 210.8994 L315.2057 200.7437 L315.8371 202.2761 L316.4686 205.6163 L317.1 213.2367 L317.7314 210.8006 L318.3629 208.5902 L318.9943 213.3492 L319.6257 197.0159 L320.2571 192.1158 L320.8885 192.8389 L321.52 195.6913 L322.1514 205.4919 L322.7829 215.0424 L323.4143 203.079 L324.0457 210.4986 L324.6772 201.9442 L325.3086 198.2677 L325.94 200.1232 L326.5714 150.5593 L327.2029 150.8595 L327.8343 147.0842 L328.4657 150.3185 L329.0971 164.3489 L329.7286 182.0782 L330.36 192.318 L330.9914 201.7947 L331.6229 192.4827 L332.2543 195.3914 L332.8857 195.4406 L333.5171 186.0562 L334.1486 175.1978 L334.78 188.1781 L335.4114 181.443 L336.0428 190.001 L336.6743 184.9452 L337.3057 189.5267 L337.9371 198.4556 L338.5686 185.7247 L339.2 185.9032 L339.8314 185.2373 L340.4629 190.5217 L341.0943 188.3041 L341.7257 195.4845 L342.3571 185.7395 L342.9886 194.8129 L343.62 195.5596 L344.2514 175.7891 L344.8829 190.9443 L345.5143 191.4536 L346.1457 169.6213 L346.7772 188.7177 L347.4086 198.1539 L348.04 199.0563 L348.6714 194.6937 L349.3029 186.1904 L349.9343 184.0285 L350.5657 176.0071 L351.1971 188.1233 L351.8286 192.8823 L352.46 210.9316 L353.0914 185.3385 L353.7228 187.3282 L354.3543 197.9571 L354.9857 183.1846 L355.6171 184.5396 L356.2486 177.1642 L356.88 188.3238 L357.5114 184.3838 L358.1429 187.7175 L358.7743 203.1646 L359.4057 190.6742 L360.0371 186.3659 L360.6686 187.5512 L361.3 198.6752 L361.9314 175.5849 L362.5629 196.0295 L363.1943 177.4032 L363.8257 193.8125 L364.4572 189.1876 L365.0886 185.687 L365.72 186.2332 L366.3514 196.0425 L366.9829 189.2663 L367.6143 195.6452 L368.2457 186.7898 L368.8771 188.5009 L369.5086 191.3058 L370.14 185.7766 L370.7714 182.8566 L371.4029 184.5675 L372.0343 197.0354 L372.6657 183.0235 L373.2971 182.0817 L373.9286 197.4534 L374.56 190.5456 L375.1914 186.2453 L375.8228 182.4382 L376.4543 205.4041 L377.0857 191.5493 L377.7171 192.5543 L378.3486 174.5463 L378.98 186.2419 L379.6115 182.5102 L380.2429 187.7041 L380.8743 190.837 L381.5057 187.773 L382.1371 188.5562 L382.7686 192.1931 L383.4 187.9778 L384.0314 190.0008 L384.6629 186.5002 L385.2943 187.8586 L385.9257 200.6271 L386.5571 176.2528 L387.1886 191.8946 L387.82 177.7747 L388.4514 190.8784 L389.0829 173.3042 L389.7143 204.108 L390.3457 185.7295 L390.9771 183.3806 L391.6086 192.264 L392.24 187.9311 L392.8714 194.3868 L393.5028 187.324 L394.1343 184.3026 L394.7657 190.2528 L395.3972 177.1166 L396.0286 185.8478 L396.66 186.6464 L397.2914 193.0845 L397.9229 186.9559 L398.5543 190.1548 L399.1857 187.3876 L399.8171 195.488 L400.4486 186.5047 L401.08 176.3182 L401.7114 182.0706 L402.3429 181.2567 L402.9743 200.3654 L403.6057 183.6474 L404.2372 185.1455 L404.8686 195.847 L405.5 182.0206 L406.1314 189.7502 L406.7628 184.9555 L407.3943 191.8962 L408.0257 179.9904 L408.6571 187.4166 L409.2886 188.7494 L409.92 191.772 L410.5514 179.5302 L411.1829 187.8447 L411.8143 177.4655 L412.4457 198.5327 L413.0771 192.3398 L413.7086 180.5026 L414.34 192.3558 L414.9714 183.008 L415.6028 184.8883 L416.2343 187.3709 L416.8657 184.5295 L417.4972 184.4878 L418.1286 180.8524 L418.76 183.328 L419.3914 189.9966 L420.0229 198.4164 L420.6543 186.0438 L421.2857 199.2565 L421.9171 179.8439 L422.5486 181.5695 L423.18 185.976 L423.8114 181.6053 L424.4429 178.1388 L425.0743 182.0894 L425.7057 189.0386 L426.3371 195.7368 L426.9686 199.5719 L427.6 179.4761 L428.2314 185.3775 L428.8629 181.3164 L429.4943 188.4658 L430.1257 184.6833 L430.7571 184.3393 L431.3885 188.9516 L432.02 176.9505 L432.6514 182.3032 L433.2829 182.4972 L433.9143 191.225 L434.5457 198.8393 L435.1772 188.2231 L435.8086 186.5987 L436.44 198.2417 L437.0714 183.8636 L437.7029 179.6105 L438.3343 181.9828 L438.9657 185.696 L439.5971 178.5158 L440.2286 183.4956 L440.86 182.2173 L441.4914 197.6469 L442.1229 185.4017 L442.7543 187.1941 L443.3857 192.6419 L444.0171 182.8092 L444.6486 193.5824 L445.28 183.3733 L445.9114 202.5495 L446.5428 177.8347 L447.1743 181.81 L447.8057 182.2256 L448.4371 187.6412 L449.0686 175.427 L449.7 190.6758 L450.3314 195.0339 L450.9629 182.5545 L451.5943 190.8783 L452.2257 190.3661 L452.8571 187.1335 L453.4886 186.2334 L454.12 188.7038 L454.7514 185.1651 L455.3829 190.3497 L456.0143 184.7511 L456.6457 189.682 L457.2772 190.8964 L457.9086 180.1441 L458.54 192.7697 L459.1714 176.8085 L459.8029 179.4333 L460.4343 188.1297 L461.0657 183.9112 L461.6971 199.8907 L462.3286 191.2437 L462.96 190.7556 L463.5914 193.2842 L464.2228 192.2871 L464.8543 185.7543 L465.4857 184.3632 L466.1171 182.6123 L466.7486 180.6319 L467.38 182.0876 L468.0114 180.8903 L468.6429 182.5736 L469.2743 194.4585 L469.9057 197.976 L470.5371 188.2616 L471.1686 201.5657 L471.8 182.4436 L472.4314 191.0567 L473.0629 178.0706 L473.6943 191.5146 L474.3257 180.0918 L474.9572 186.437 L475.5886 189.6873 L476.22 182.227 L476.8514 193.9004 L477.4829 185.7247 L478.1143 198.6655 L478.7457 197.7484 L479.3771 186.1119 L480.0086 194.0964 L480.64 186.9546 L481.2714 187.6594 L481.9029 179.6123 L482.5343 185.3672 L483.1657 183.2416 L483.7971 187.872 L484.4286 195.8844 L485.06 188.8529 L485.6914 191.3005 L486.3229 202.2854 L486.9543 181.3604 L487.5857 192.2041 L488.2171 183.0854 L488.8485 174.7355 L489.48 180.489 L490.1115 196.5571 L490.7429 178.2678 L491.3743 189.9821 L492.0057 192.5965 L492.6372 196.8846 L493.2686 194.7763 L493.9 193.6734 L494.5314 194.8731 L495.1628 199.5279 L495.7943 191.9024 L496.4257 178.381 L497.0571 176.7245 L497.6886 186.6781 L498.32 187.3225 L498.9514 189.4574 L499.5829 187.4769 L500.2143 195.582 L500.8457 190.7672 L501.4771 187.2391 L502.1086 191.3146 L502.74 183.7458 L503.3714 182.5144 L504.0028 190.971 L504.6343 190.3727 L505.2657 192.1093 L505.8972 191.8845 L506.5286 194.3909 L507.16 186.6959 L507.7914 189.8957 L508.4229 193.0625 L509.0543 185.3749 L509.6857 187.4341 L510.3171 176.7036 L510.9485 191.4215 L511.58 186.0974 L512.2114 192.5811 L512.8428 196.901 L513.4743 180.1799 L514.1057 204.0623 L514.7372 193.2025 L515.3686 195.4" style="fill:none; fill-rule:evenodd;"
    /></g
  ></g
></svg
>
